// N => name S => Shop location C => cost K => key
+>
N: >Nemertea<
S: >Data/Main_Shop.dat<
C: >10<
K: >1<
+>
N: >Flaming Stones<
S: >Data/Flaming_Stones_Shop.dat<
C: >90<
K: >1<
+>
N: >Wizard's Tower<
S: >Data/Wizard_Shop.dat<
C: >300<
K: >1<
+>
N: >Shadow of Mountain<
S: >Data/Main_Shop.dat<
C: >900<
K: >1<
+>
N: >Golden Forest<
S: >Data/Main_Shop.dat<
C: >400<
K: >1<
+>
N: >Dead Lake<
S: >Data/Main_Shop.dat<
C: >750<
K: >1<
+>
N: >Orc's Stronghold<
S: >Data/Main_Shop.dat<
C: >900<
K: >1<
+>
N: >Hjortar Hus<
S: >Data/Main_Shop.dat<
C: >1200<
K: >1<
+>
N: >Black Fall<
S: >Data/Main_shop.dat<
C: >1500<
K: >1<
+>
N: >Final BossAssNigga<
S: >Data/Main_Shop.dat<
C: >1700<
K: >1<
